{
  "videos": [
    {
      "description": "Big Buck Bunny tells the story of a giant rabbit with a heart bigger than himself. When one sunny day three rodents rudely harass him, something snaps... and the rabbit ain't no bunny anymore! In the typical cartoon tradition he prepares the nasty rodents a comical revenge.\n\nLicensed under the Creative Commons Attribution license\nhttp://www.bigbuckbunny.org",
      "sources": [
        "http://mirrors.standaloneinstaller.com/video-sample/P6090053.3gp"
      ],
      "subtitle": "By Blender Foundation",
      "thumb": "images/BigBuckBunny.jpg",
      "title": "Big Buck Bunny"
    },
    {
      "description": "The first Blender Open Movie from 2006",
      "sources": [
        "http://mirrors.standaloneinstaller.com/video-sample/small.3gp"
      ],
      "subtitle": "By Blender Foundation",
      "thumb": "images/ElephantsDream.jpg",
      "title": "Elephant Dream"
    },
    {
      "description": "HBO GO now works with Chromecast -- the easiest way to enjoy online video on your TV. For when you want to settle into your Iron Throne to watch the latest episodes. For $35.\nLearn how to use Chromecast with HBO GO and more at google.com/chromecast.",
      "sources": [
        "http://mirrors.standaloneinstaller.com/video-sample/grb_2.m4v"
      ],
      "subtitle": "By Google",
      "thumb": "images/ForBiggerBlazes.jpg",
      "title": "For Bigger Blazes"
    },
    {
      "description": "Introducing Chromecast. The easiest way to enjoy online video and music on your TV—for when Batman's escapes aren't quite big enough. For $35. Learn how to use Chromecast with Google Play Movies and more at google.com/chromecast.",
      "sources": [
        "http://mirrors.standaloneinstaller.com/video-sample/small.mkv"
      ],
      "subtitle": "By Google",
      "thumb": "images/ForBiggerEscapes.jpg",
      "title": "For Bigger Escape"
    },
    {
      "description": "Introducing Chromecast. The easiest way to enjoy online video and music on your TV. For $35.  Find out more at google.com/chromecast.",
      "sources": [
        "https://sample-videos.com/video123/mp4/720/big_buck_bunny_720p_1mb.mp4"
      ],
      "subtitle": "By Google",
      "thumb": "images/ForBiggerFun.jpg",
      "title": "For Bigger Fun"
    }
  ]
}